{
    "age": 39,
    "street": "796 سمسار بزرگ راه\nشهر سجاد, اصفهان 97402",
    "city": "دهستان اميرعباس",
    "state": "آذربایجان شرقی",
    "profile": {
        "job": "دانش‌آموز",
        "company": "نویان بسپار",
        "ssn": "161-07-6025",
        "residence": "2377 محمد طاها دره سوئیت 037\nشرق اميرعلي, سیستان و بلوچستان 6084294037",
        "current_location": [
            -86.834429,
            -28.377475
        ],
        "blood_group": "O-",
        "website": [
            "http://www.grwh.ir/",
            "https://mshyn.org/",
            "http://www.drybn.com/",
            "http://www.ksht.com/"
        ],
        "username": "mhdthh49",
        "name": "سرکار خانم ثنا سعیدی",
        "sex": "F",
        "address": "03959 حسام تقاطع\nجنوب سجاد, سمنان 6622465654",
        "mail": "mrym72@yahoo.com",
        "birthdate": "1953-1-4"
    }
}
{
    "age": 45,
    "street": "62378 محمد پل\nجنوب محيا, خراسان رضوی 9646",
    "city": "باغات احسان",
    "state": "آذربایجان غربی",
    "profile": {
        "job": "سرهنگ",
        "company": "ساخت تأسیسات دریایی ایران",
        "ssn": "179-57-8246",
        "residence": "7181 اميرمهدي بلوار سوئیت 152\nغرب اسرا, بوشهر 23308",
        "current_location": [
            82.3027835,
            -59.659019
        ],
        "blood_group": "A+",
        "website": [
            "https://www.symn.net/",
            "http://lwlh.ir/",
            "https://ptrwshymy.ir/"
        ],
        "username": "swgndmyn",
        "name": "مائده علی پور",
        "sex": "F",
        "address": "5586 ترکاشوند جزیره سوئیت 189\nروستای حسنا, خوزستان 405022",
        "mail": "lnznwrwzy@gmail.com",
        "birthdate": "2007-11-16"
    }
}
{
    "age": 35,
    "street": "891 ایروانی میدان\nاستان امیرمحمد, سمنان 3441",
    "city": "شهرستان عرفان",
    "state": "خراسان",
    "profile": {
        "job": "ماهی‌گیر",
        "company": "نوین آلیاژسمنان",
        "ssn": "620-41-3215",
        "residence": "2669 احمدی خیابان سوئیت 997\nغرب حنانه, فارس 136",
        "current_location": [
            52.096856,
            24.885603
        ],
        "blood_group": "O+",
        "website": [
            "http://twsh.com/",
            "https://www.gz.ir/",
            "https://pkhsh.com/",
            "https://www.zmzm.com/"
        ],
        "username": "slqdy",
        "name": "حنانه پویان",
        "sex": "F",
        "address": "01607 حسنی کوچه\nبندر آرتين, کرمان 7876",
        "mail": "mhdthh46@mailfa.com",
        "birthdate": "1938-5-5"
    }
}
{
    "age": 61,
    "street": "939 شبیری بزرگ راه\nغرب هانيه, مازندران 594289",
    "city": "استان آتنا",
    "state": "سیستان و بلوچستان",
    "profile": {
        "job": "جنگلبان",
        "company": "کاشی فیروزه مشهد",
        "ssn": "548-46-8038",
        "residence": "2787 زنجانی خیابان واحد 095\nروستای ياسين, اصفهان 036",
        "current_location": [
            -36.0856605,
            -56.280776
        ],
        "blood_group": "AB+",
        "website": [
            "http://plstyrn.org/",
            "https://www.plstyrn.ir/",
            "http://www.yskhw.net/"
        ],
        "username": "lyrd08",
        "name": "جناب آقای حسام دادفر",
        "sex": "M",
        "address": "685 ياسمين پل سوئیت 398\nشرق اميرحسين, بوشهر 189932",
        "mail": "shdyt@yahoo.com",
        "birthdate": "1941-4-13"
    }
}
{
    "age": 66,
    "street": "655 طلوعی چهار راه\nدهستان ابوالفضل, فارس 268860",
    "city": "بندر مهدي",
    "state": "خوزستان",
    "profile": {
        "job": "شهردار",
        "company": "کارتن مشهد",
        "ssn": "090-77-5580",
        "residence": "62517 کوثر بلوار\nشرق محمد, خراسان شمالی 199905",
        "current_location": [
            -20.689771,
            6.041905
        ],
        "blood_group": "O+",
        "website": [
            "http://www.grwh.org/",
            "https://www.mdn.com/",
            "http://www.syb.ir/",
            "https://lnt.com/"
        ],
        "username": "prsbwlfdl",
        "name": "آيناز جهانی",
        "sex": "F",
        "address": "07731 طاها کوه\nروستای محمدیاسین, کهگیلویه و بویراحمد 0190125026",
        "mail": "mwswymydh@gmail.com",
        "birthdate": "1959-8-4"
    }
}
{
    "age": 52,
    "street": "334 عرفان میدان\nغرب سبحان, بوشهر 272969",
    "city": "استان ياسمين",
    "state": "اصفهان",
    "profile": {
        "job": "جنگلبان",
        "company": "تولیدی و صنعتی عقاب افشان",
        "ssn": "712-72-7194",
        "residence": "487 سارا چهار راه واحد 011\nشهرستان علي, بوشهر 4149963062",
        "current_location": [
            47.291923,
            -71.311329
        ],
        "blood_group": "AB+",
        "website": [
            "https://www.bzrgny.com/",
            "http://www.sny.ir/",
            "https://drwszy.ir/"
        ],
        "username": "rqdy",
        "name": "پرهام کریمی",
        "sex": "M",
        "address": "736 رودگر آزاد راه سوئیت 177\nبندر محمدیاسین, لرستان 6703566176",
        "mail": "sbhn74@yahoo.com",
        "birthdate": "1936-9-28"
    }
}
{
    "age": 45,
    "street": "51449 مهدیان آزاد راه\nشهرستان آيدا, لرستان 1052",
    "city": "دهستان محمدیاسین",
    "state": "زنجان",
    "profile": {
        "job": "جهانگرد",
        "company": "پالایش نفت لاوان",
        "ssn": "385-20-9450",
        "residence": "5382 عرشیا بزرگ راه سوئیت 319\nروستای اسما, چهارمحال و بختیاری 490109",
        "current_location": [
            76.242846,
            -126.531506
        ],
        "blood_group": "A-",
        "website": [
            "https://www.symn.org/",
            "https://www.lyzyng.ir/"
        ],
        "username": "hly89",
        "name": "متین ملکیان",
        "sex": "M",
        "address": "39946 نرگس بزرگ راه سوئیت 492\nشهر نیما, ایلام 716",
        "mail": "fbhrmy@mailfa.com",
        "birthdate": "1918-9-15"
    }
}
{
    "age": 23,
    "street": "502 سعیدی تونل\nبندر ریحانه, گلستان 613952",
    "city": "بندر آتنا",
    "state": "زنجان",
    "profile": {
        "job": "سرهنگ",
        "company": "شيميايي پارس پامچال",
        "ssn": "897-34-1716",
        "residence": "656 قاضی دره\nروستای امیرعباس, گلستان 888904",
        "current_location": [
            33.002281,
            -176.859215
        ],
        "blood_group": "B-",
        "website": [
            "http://www.bymh.com/",
            "http://sd.com/",
            "http://awngn.net/",
            "http://rhbrn.net/"
        ],
        "username": "mjthdyhsyn",
        "name": "مهديس سمسار",
        "sex": "F",
        "address": "2900 عباس کوه\nشهر طاها, خراسان رضوی 1730586489",
        "mail": "kbhrmy@mailfa.com",
        "birthdate": "1951-7-31"
    }
}
{
    "age": 27,
    "street": "7964 میردامادی کوچه\nشهرستان آراد, قزوین 2282392836",
    "city": "جنوب الینا",
    "state": "کرمان",
    "profile": {
        "job": "پاسدار",
        "company": "سرمايه گذاري البرز",
        "ssn": "431-12-0125",
        "residence": "2069 محمدحسين جاده\nشهر پرهام, یزد 584",
        "current_location": [
            -65.764983,
            -72.16691
        ],
        "blood_group": "AB-",
        "website": [
            "http://hmkhrn.com/",
            "https://www.bnkh.ir/",
            "https://snty.com/"
        ],
        "username": "hstymhmd-pwr",
        "name": "سرکار خانم دکتر آتنا کمالی",
        "sex": "F",
        "address": "57264 عليرضا کوچه\nشرق دانیال, همدان 5177004683",
        "mail": "lyrd95@yahoo.com",
        "birthdate": "2014-6-17"
    }
}
{
    "age": 55,
    "street": "44145 احسان جاده واحد 422\nدهستان هانيه, کرمان 36825",
    "city": "شهرستان آيدا",
    "state": "قزوین",
    "profile": {
        "job": "فوتبالیست",
        "company": "موکت نگین مشهد",
        "ssn": "871-88-7460",
        "residence": "21268 آیلین چهار راه\nشهرستان یوسف, خراسان 9999942385",
        "current_location": [
            -47.399961,
            84.139888
        ],
        "blood_group": "O+",
        "website": [
            "http://www.srmyh.ir/",
            "http://grwh.ir/"
        ],
        "username": "mswmhrbny",
        "name": "پارسا اشتری",
        "sex": "M",
        "address": "786 علی اكبر بلوار واحد 357\nشهرستان متين, قم 861",
        "mail": "arynmjtbwy@mailfa.com",
        "birthdate": "1934-6-19"
    }
}