{
    "senderName": "Behram",
    "sendTimePersian": "1400/01/30 22:00",
    "Hashtags": "[\"خساپا\"]",
    "postId": "271525644",
    "type": "twit",
    "senderUsername": "behram",
    "content": "#خساپا برخیز و نخور غم جهان گذران\n\nبنشین و کمی وقت به شادی گذران",
    "sendTime": "2021-04-19T17:30:02Z"
}